{
  "project_info": {
    "project_number": "1006670688717",
    "firebase_url": "https://fir-app-652cb.firebaseio.com",
    "project_id": "fir-app-652cb",
    "storage_bucket": "fir-app-652cb.appspot.com"
  },
  "client": [
    {
      "client_info": {
        "mobilesdk_app_id": "1:1006670688717:android:975ae7bd459e6b4803d484",
        "android_client_info": {
          "package_name": "com.example.applocadora"
        }
      },
      "oauth_client": [
        {
          "client_id": "1006670688717-sseke2us6rs34ihvelh7vtncqm4v4uci.apps.googleusercontent.com",
          "client_type": 1,
          "android_info": {
            "package_name": "com.example.applocadora",
            "certificate_hash": "25e1f9f47e5ad4b4a59999bca42c067138a56363"
          }
        },
        {
          "client_id": "1006670688717-s67sthughvq1nhf5mdq5nano67gmv4su.apps.googleusercontent.com",
          "client_type": 3
        }
      ],
      "api_key": [
        {
          "current_key": "AIzaSyC0rKqlh9dxec9JOd7M_e7guUm3z37l-AQ"
        }
      ],
      "services": {
        "appinvite_service": {
          "other_platform_oauth_client": [
            {
              "client_id": "1006670688717-s67sthughvq1nhf5mdq5nano67gmv4su.apps.googleusercontent.com",
              "client_type": 3
            }
          ]
        }
      }
    }
  ],
  "configuration_version": "1"
}